%YAML 1.1
%TAG !u! tag:unity3d.com,2011:
--- !u!1 &9161687017561438240
GameObject:
  m_ObjectHideFlags: 0
  m_CorrespondingSourceObject: {fileID: 0}
  m_PrefabInstance: {fileID: 0}
  m_PrefabAsset: {fileID: 0}
  serializedVersion: 6
  m_Component:
  - component: {fileID: 9161687017561438243}
  - component: {fileID: 9161687017561438242}
  m_Layer: 9
  m_Name: Figure
  m_TagString: Untagged
  m_Icon: {fileID: 0}
  m_NavMeshLayer: 0
  m_StaticEditorFlags: 0
  m_IsActive: 1
--- !u!4 &9161687017561438243
Transform:
  m_ObjectHideFlags: 0
  m_CorrespondingSourceObject: {fileID: 0}
  m_PrefabInstance: {fileID: 0}
  m_PrefabAsset: {fileID: 0}
  m_GameObject: {fileID: 9161687017561438240}
  m_LocalRotation: {x: 0, y: 0, z: 0, w: 1}
  m_LocalPosition: {x: 0, y: 0, z: 0}
  m_LocalScale: {x: 1, y: 1, z: 1}
  m_Children: []
  m_Father: {fileID: 0}
  m_RootOrder: 0
  m_LocalEulerAnglesHint: {x: 0, y: 0, z: 0}
--- !u!114 &9161687017561438242
MonoBehaviour:
  m_ObjectHideFlags: 0
  m_CorrespondingSourceObject: {fileID: 0}
  m_PrefabInstance: {fileID: 0}
  m_PrefabAsset: {fileID: 0}
  m_GameObject: {fileID: 9161687017561438240}
  m_Enabled: 1
  m_EditorHideFlags: 0
  m_Script: {fileID: 11500000, guid: 4b441aaeb3e1e89448f863bd4407b5c5, type: 3}
  m_Name: 
  m_EditorClassIdentifier: 
  gameLogic: {fileID: 0}
  transparentCube: {fileID: 400000, guid: a8884dec3664ae44aaaca9f48b4a5cf5, type: 3}
  cubeEdges: {fileID: 992498840852232581, guid: d2e6ea1712edd1e44b1d3478e1cc0245,
    type: 3}
  axis: {fileID: 44617783029638774, guid: e0716ef904155c942bfdc5cb202a9002, type: 3}
  cubeSelection: {fileID: 4246447090722711572, guid: 6bd203b7ae5888d45ada451a6f517fec,
    type: 3}
  isBottomView: 0
  bottomFigure: {fileID: 0}
  highlightType: 0
  figureViewType: 0
  fallSpeed: 2
  bornLevel: 13
  rotationSpeed: 8
  moveSpeed: 12
  relativeDirection: 0
  levelTillFall: 0
  redrawSelection: 0
  _test_sameColor: 0
