%YAML 1.1
%TAG !u! tag:unity3d.com,2011:
--- !u!1 &86266014620830987
GameObject:
  m_ObjectHideFlags: 0
  m_CorrespondingSourceObject: {fileID: 0}
  m_PrefabInstance: {fileID: 0}
  m_PrefabAsset: {fileID: 0}
  serializedVersion: 6
  m_Component:
  - component: {fileID: 86266014620830980}
  - component: {fileID: 86266014620830981}
  - component: {fileID: 1066027752438121698}
  - component: {fileID: 972028352478991059}
  m_Layer: 0
  m_Name: GameLogic
  m_TagString: Untagged
  m_Icon: {fileID: 0}
  m_NavMeshLayer: 0
  m_StaticEditorFlags: 0
  m_IsActive: 1
--- !u!4 &86266014620830980
Transform:
  m_ObjectHideFlags: 0
  m_CorrespondingSourceObject: {fileID: 0}
  m_PrefabInstance: {fileID: 0}
  m_PrefabAsset: {fileID: 0}
  m_GameObject: {fileID: 86266014620830987}
  m_LocalRotation: {x: 0, y: 0, z: 0, w: 1}
  m_LocalPosition: {x: 2.0772307, y: -10.624058, z: -5.155675}
  m_LocalScale: {x: 1, y: 1, z: 1}
  m_Children: []
  m_Father: {fileID: 0}
  m_RootOrder: 0
  m_LocalEulerAnglesHint: {x: 0, y: 0, z: 0}
--- !u!114 &86266014620830981
MonoBehaviour:
  m_ObjectHideFlags: 0
  m_CorrespondingSourceObject: {fileID: 0}
  m_PrefabInstance: {fileID: 0}
  m_PrefabAsset: {fileID: 0}
  m_GameObject: {fileID: 86266014620830987}
  m_Enabled: 1
  m_EditorHideFlags: 0
  m_Script: {fileID: 11500000, guid: c5dcc5643299db4489cfb1d137419766, type: 3}
  m_Name: 
  m_EditorClassIdentifier: 
  baseFigure: {fileID: 0}
  figure: {fileID: 0}
  figureDublicate: {fileID: 0}
  smallCamera: {fileID: 0}
  leaderBoard: {fileID: 0}
  levelTillFall: {fileID: 0}
  levelSettings: {fileID: 0}
  levelGenerator: {fileID: 0}
  isScoreOn: 0
  isDemo: 0
  demoTime: 2
  isDemoCameraAnim: 0
  timeToRotate: 1
  isTutorialOn: 0
  isOpponent: 0
  isCycleColors: 0
  isOneColor: 0
--- !u!114 &1066027752438121698
MonoBehaviour:
  m_ObjectHideFlags: 0
  m_CorrespondingSourceObject: {fileID: 0}
  m_PrefabInstance: {fileID: 0}
  m_PrefabAsset: {fileID: 0}
  m_GameObject: {fileID: 86266014620830987}
  m_Enabled: 1
  m_EditorHideFlags: 0
  m_Script: {fileID: 11500000, guid: 0eb27d03d9a714dd2bbfeb9af3779ac2, type: 3}
  m_Name: 
  m_EditorClassIdentifier: 
  rewriteSettings: 0
  firstGold: 1
  gameDifficulty: 0
  isTurnOffTutorial: 0
  levelName: 0
  nothingFall: 0
--- !u!114 &972028352478991059
MonoBehaviour:
  m_ObjectHideFlags: 0
  m_CorrespondingSourceObject: {fileID: 0}
  m_PrefabInstance: {fileID: 0}
  m_PrefabAsset: {fileID: 0}
  m_GameObject: {fileID: 86266014620830987}
  m_Enabled: 1
  m_EditorHideFlags: 0
  m_Script: {fileID: 11500000, guid: f7389296122354fb9ae61989f0123c11, type: 3}
  m_Name: 
  m_EditorClassIdentifier: 
  firstColor: 1
  secondColor: 2
  thirdColor: 3
  colors: 
